…
``` r
##   * how break down re: version of R they were built on

installed.packages() %>% 
  as_data_frame() %>% 
  group_by(Version) %>% 
  count() %>% 
  arrange(desc(n))
```

    ## # A tibble: 188 x 2
    ## # Groups:   Version [188]
    ##    Version     n
    ##      <chr> <int>
    ##  1   1.1.0    15
    ##  2   3.4.3    14
    ##  3   0.8.0    10
    ##  4   0.2.0     9
    ##  5   1.0.0     9
    ##  6     0.3     8
    ##  7   1.1.1     8
    ##  8   0.1.1     7
    ##  9     1.5     6
    ## 10   0.1.2     5
    ## # ... with 178 more rows
…
